(export (version D)
  (design
    (source "C:/Users/reso/Documents/PROJETS/BRUTBOX/teensy_V2 -123mm/teensy_V1.sch")
    (date "09/03/2017 15:13:56")
    (tool "Eeschema 4.0.0-rc1-stable")
    (sheet (number 1) (name /) (tstamps /)
      (title_block
        (title "Motherboard BrutBox Teensy 2.0 ")
        (company "Autor: Jonathan IAPICCO for RESONNANCE NUMERIQUE")
        (rev 1.0)
        (date 2015-10-07)
        (source teensy_V1.sch)
        (comment (number 1) (value ""))
        (comment (number 2) (value ""))
        (comment (number 3) (value ""))
        (comment (number 4) (value "")))))
  (components
    (comp (ref P1)
      (value Left_conn)
      (footprint BrutBox_MB_Teensy:Socket_Strip_Straight_1x12)
      (libsource (lib conn) (part CONN_01X12))
      (sheetpath (names /) (tstamps /))
      (tstamp 5614E3ED))
    (comp (ref P2)
      (value Right_conn)
      (footprint BrutBox_MB_Teensy:Socket_Strip_Straight_1x12)
      (libsource (lib conn) (part CONN_01X12))
      (sheetpath (names /) (tstamps /))
      (tstamp 5614E5EC))
    (comp (ref P7)
      (value USB1)
      (footprint BrutBox_MB_Teensy:USB_A_V_D)
      (libsource (lib conn) (part CONN_01X05))
      (sheetpath (names /) (tstamps /))
      (tstamp 5614F4EF))
    (comp (ref P15)
      (value H1)
      (footprint BrutBox_MB_Teensy:1pin)
      (libsource (lib conn) (part CONN_01X01))
      (sheetpath (names /) (tstamps /))
      (tstamp 5615A88D))
    (comp (ref P16)
      (value H2)
      (footprint BrutBox_MB_Teensy:1pin)
      (libsource (lib conn) (part CONN_01X01))
      (sheetpath (names /) (tstamps /))
      (tstamp 5615A970))
    (comp (ref P17)
      (value H3)
      (footprint BrutBox_MB_Teensy:1pin)
      (libsource (lib conn) (part CONN_01X01))
      (sheetpath (names /) (tstamps /))
      (tstamp 5615A9B5))
    (comp (ref P18)
      (value H4)
      (footprint BrutBox_MB_Teensy:1pin)
      (libsource (lib conn) (part CONN_01X01))
      (sheetpath (names /) (tstamps /))
      (tstamp 5615A9FB))
    (comp (ref P8)
      (value USB2)
      (footprint BrutBox_MB_Teensy:USB_A_V_D)
      (libsource (lib conn) (part CONN_01X05))
      (sheetpath (names /) (tstamps /))
      (tstamp 561FE1EA))
    (comp (ref P9)
      (value USB3)
      (footprint BrutBox_MB_Teensy:USB_A_V_D)
      (libsource (lib conn) (part CONN_01X05))
      (sheetpath (names /) (tstamps /))
      (tstamp 561FE3DB))
    (comp (ref P10)
      (value USB4)
      (footprint BrutBox_MB_Teensy:USB_A_V_D)
      (libsource (lib conn) (part CONN_01X05))
      (sheetpath (names /) (tstamps /))
      (tstamp 561FE3F0))
    (comp (ref P11)
      (value USB5)
      (footprint BrutBox_MB_Teensy:USB_A_V_D)
      (libsource (lib conn) (part CONN_01X05))
      (sheetpath (names /) (tstamps /))
      (tstamp 561FE4FD))
    (comp (ref P13)
      (value USB7)
      (footprint BrutBox_MB_Teensy:USB_A_V_D)
      (libsource (lib conn) (part CONN_01X05))
      (sheetpath (names /) (tstamps /))
      (tstamp 561FE527))
    (comp (ref P14)
      (value USB8)
      (footprint BrutBox_MB_Teensy:USB_A_V_D)
      (libsource (lib conn) (part CONN_01X05))
      (sheetpath (names /) (tstamps /))
      (tstamp 561FE53C))
    (comp (ref P19)
      (value H4)
      (footprint BrutBox_MB_Teensy:1pin)
      (libsource (lib conn) (part CONN_01X01))
      (sheetpath (names /) (tstamps /))
      (tstamp 56DEE79A))
    (comp (ref P20)
      (value H4)
      (footprint BrutBox_MB_Teensy:1pin)
      (libsource (lib conn) (part CONN_01X01))
      (sheetpath (names /) (tstamps /))
      (tstamp 56DEE7EB))
    (comp (ref P12)
      (value USB6)
      (footprint BrutBox_MB_Teensy:USB_A_V_D)
      (libsource (lib conn) (part CONN_01X05))
      (sheetpath (names /) (tstamps /))
      (tstamp 561FE512)))
  (libparts
    (libpart (lib conn) (part CONN_01X01)
      (footprints
        (fp Pin_Header_Straight_1X01)
        (fp Pin_Header_Angled_1X01)
        (fp Socket_Strip_Straight_1X01)
        (fp Socket_Strip_Angled_1X01))
      (fields
        (field (name Reference) P)
        (field (name Value) CONN_01X01))
      (pins
        (pin (num 1) (name P1) (type passive))))
    (libpart (lib conn) (part CONN_01X05)
      (footprints
        (fp Pin_Header_Straight_1X05)
        (fp Pin_Header_Angled_1X05)
        (fp Socket_Strip_Straight_1X05)
        (fp Socket_Strip_Angled_1X05))
      (fields
        (field (name Reference) P)
        (field (name Value) CONN_01X05))
      (pins
        (pin (num 1) (name P1) (type passive))
        (pin (num 2) (name P2) (type passive))
        (pin (num 3) (name P3) (type passive))
        (pin (num 4) (name P4) (type passive))
        (pin (num 5) (name P5) (type passive))))
    (libpart (lib conn) (part CONN_01X12)
      (footprints
        (fp Pin_Header_Straight_1X12)
        (fp Pin_Header_Angled_1X12)
        (fp Socket_Strip_Straight_1X12)
        (fp Socket_Strip_Angled_1X12))
      (fields
        (field (name Reference) P)
        (field (name Value) CONN_01X12))
      (pins
        (pin (num 1) (name P1) (type passive))
        (pin (num 2) (name P2) (type passive))
        (pin (num 3) (name P3) (type passive))
        (pin (num 4) (name P4) (type passive))
        (pin (num 5) (name P5) (type passive))
        (pin (num 6) (name P6) (type passive))
        (pin (num 7) (name P7) (type passive))
        (pin (num 8) (name P8) (type passive))
        (pin (num 9) (name P9) (type passive))
        (pin (num 10) (name P10) (type passive))
        (pin (num 11) (name P11) (type passive))
        (pin (num 12) (name P12) (type passive)))))
  (libraries
    (library (logical conn)
      (uri "C:\\Program Files\\KiCad\\share\\kicad\\library\\conn.lib")))
  (nets
    (net (code 1) (name +5V)
      (node (ref P9) (pin 1))
      (node (ref P10) (pin 1))
      (node (ref P12) (pin 1))
      (node (ref P14) (pin 1))
      (node (ref P7) (pin 1))
      (node (ref P2) (pin 1))
      (node (ref P8) (pin 1))
      (node (ref P11) (pin 1))
      (node (ref P13) (pin 1)))
    (net (code 2) (name "Net-(P10-Pad2)")
      (node (ref P10) (pin 2)))
    (net (code 3) (name "Net-(P11-Pad2)")
      (node (ref P11) (pin 2)))
    (net (code 4) (name /A4)
      (node (ref P11) (pin 3))
      (node (ref P2) (pin 6)))
    (net (code 5) (name GND)
      (node (ref P14) (pin 5))
      (node (ref P14) (pin 4))
      (node (ref P13) (pin 5))
      (node (ref P11) (pin 4))
      (node (ref P8) (pin 4))
      (node (ref P8) (pin 5))
      (node (ref P7) (pin 5))
      (node (ref P7) (pin 4))
      (node (ref P11) (pin 5))
      (node (ref P10) (pin 5))
      (node (ref P1) (pin 1))
      (node (ref P10) (pin 4))
      (node (ref P12) (pin 5))
      (node (ref P13) (pin 4))
      (node (ref P9) (pin 5))
      (node (ref P9) (pin 4))
      (node (ref P12) (pin 4)))
    (net (code 6) (name "Net-(P12-Pad2)")
      (node (ref P12) (pin 2)))
    (net (code 7) (name "Net-(P13-Pad2)")
      (node (ref P13) (pin 2)))
    (net (code 8) (name /A6*)
      (node (ref P2) (pin 8))
      (node (ref P13) (pin 3)))
    (net (code 9) (name "Net-(P8-Pad2)")
      (node (ref P8) (pin 2)))
    (net (code 10) (name "Net-(P9-Pad2)")
      (node (ref P9) (pin 2)))
    (net (code 11) (name /A2)
      (node (ref P2) (pin 4))
      (node (ref P9) (pin 3)))
    (net (code 12) (name /A3)
      (node (ref P10) (pin 3))
      (node (ref P2) (pin 5)))
    (net (code 13) (name /A8)
      (node (ref P2) (pin 10)))
    (net (code 14) (name /A9*)
      (node (ref P2) (pin 11)))
    (net (code 15) (name /A10)
      (node (ref P2) (pin 12)))
    (net (code 16) (name /A5)
      (node (ref P2) (pin 7))
      (node (ref P12) (pin 3)))
    (net (code 17) (name "Net-(P14-Pad2)")
      (node (ref P14) (pin 2)))
    (net (code 18) (name /A7*)
      (node (ref P2) (pin 9))
      (node (ref P14) (pin 3)))
    (net (code 19) (name "Net-(P19-Pad1)")
      (node (ref P19) (pin 1)))
    (net (code 20) (name "Net-(P20-Pad1)")
      (node (ref P20) (pin 1)))
    (net (code 21) (name "Net-(P7-Pad2)")
      (node (ref P7) (pin 2)))
    (net (code 22) (name /A0)
      (node (ref P2) (pin 2))
      (node (ref P7) (pin 3)))
    (net (code 23) (name /0_SS)
      (node (ref P1) (pin 2)))
    (net (code 24) (name /1_SCLK)
      (node (ref P1) (pin 3)))
    (net (code 25) (name /2_MOSI)
      (node (ref P1) (pin 4)))
    (net (code 26) (name /3_MISO)
      (node (ref P1) (pin 5)))
    (net (code 27) (name /4*)
      (node (ref P1) (pin 6)))
    (net (code 28) (name /5*_SCL)
      (node (ref P1) (pin 7)))
    (net (code 29) (name /6_SDA)
      (node (ref P1) (pin 8)))
    (net (code 30) (name /7_RX)
      (node (ref P1) (pin 9)))
    (net (code 31) (name /8_TX)
      (node (ref P1) (pin 10)))
    (net (code 32) (name /9*)
      (node (ref P1) (pin 11)))
    (net (code 33) (name /10*)
      (node (ref P1) (pin 12)))
    (net (code 34) (name /A1)
      (node (ref P8) (pin 3))
      (node (ref P2) (pin 3)))
    (net (code 35) (name "Net-(P15-Pad1)")
      (node (ref P15) (pin 1)))
    (net (code 36) (name "Net-(P16-Pad1)")
      (node (ref P16) (pin 1)))
    (net (code 37) (name "Net-(P17-Pad1)")
      (node (ref P17) (pin 1)))
    (net (code 38) (name "Net-(P18-Pad1)")
      (node (ref P18) (pin 1)))))