(module Socket_Strip_Straight_1x01 (layer F.Cu) (tedit 54E9F79C)
  (descr "Through hole socket strip")
  (tags "socket strip")
  (fp_text reference REF** (at 0 -5.1) (layer F.SilkS)
    (effects (font (size 1 1) (thickness 0.15)))
  )
  (fp_text value Socket_Strip_Straight_1x01 (at 0 -3.1) (layer F.Fab)
    (effects (font (size 1 1) (thickness 0.15)))
  )
  (fp_line (start -1.75 -1.75) (end -1.75 1.75) (layer F.CrtYd) (width 0.05))
  (fp_line (start 1.75 -1.75) (end 1.75 1.75) (layer F.CrtYd) (width 0.05))
  (fp_line (start -1.75 -1.75) (end 1.75 -1.75) (layer F.CrtYd) (width 0.05))
  (fp_line (start -1.75 1.75) (end 1.75 1.75) (layer F.CrtYd) (width 0.05))
  (fp_line (start 1.27 1.27) (end 1.27 -1.27) (layer F.SilkS) (width 0.15))
  (fp_line (start -1.55 -1.55) (end 0 -1.55) (layer F.SilkS) (width 0.15))
  (fp_line (start -1.55 -1.55) (end -1.55 1.55) (layer F.SilkS) (width 0.15))
  (fp_line (start -1.55 1.55) (end 0 1.55) (layer F.SilkS) (width 0.15))
  (pad 1 thru_hole rect (at 0 0) (size 2.2352 2.2352) (drill 1.016) (layers *.Cu *.Mask F.SilkS))
  (model ${KIPRJMOD}/BrutBox_MB_Teensy.3dshapes/Socket_Strip_Straight_1x01.wrl
    (at (xyz 0 0 0))
    (scale (xyz 1 1 1))
    (rotate (xyz 0 0 180))
  )
)
