(module USB_A_V_D (layer F.Cu) (tedit 56272DF7)
  (descr "USB A connector")
  (tags "USB USB_A")
  (fp_text reference REF** (at -1.5 -3) (layer F.SilkS)
    (effects (font (size 1 1) (thickness 0.15)))
  )
  (fp_text value USB_A (at 3.5 6) (layer F.Fab)
    (effects (font (size 1 1) (thickness 0.15)))
  )
  (fp_line (start -5.1 4.8) (end 12.1 4.8) (layer F.CrtYd) (width 0.05))
  (fp_line (start 12.1 4.8) (end 12.1 -2.1) (layer F.CrtYd) (width 0.05))
  (fp_line (start 12.1 -2.1) (end -5.1 -2.1) (layer F.CrtYd) (width 0.05))
  (fp_line (start -5.1 -2.1) (end -5.1 4.8) (layer F.CrtYd) (width 0.05))
  (fp_line (start 10.05 -1.52) (end 10.05 4.2) (layer F.SilkS) (width 0.15))
  (fp_line (start 10.05 4.2) (end -3.05 4.2) (layer F.SilkS) (width 0.15))
  (fp_line (start -3.05 4.2) (end -3.05 -1.52) (layer F.SilkS) (width 0.15))
  (fp_line (start -3.05 -1.52) (end 10.05 -1.52) (layer F.SilkS) (width 0.15))
  (pad 4 thru_hole circle (at 7 0 270) (size 1.50114 1.50114) (drill 1.00076) (layers *.Cu *.Mask F.SilkS))
  (pad 3 thru_hole circle (at 4.5 0 270) (size 1.50114 1.50114) (drill 1.00076) (layers *.Cu *.Mask F.SilkS))
  (pad 2 thru_hole circle (at 2.5 0 270) (size 1.50114 1.50114) (drill 1.00076) (layers *.Cu *.Mask F.SilkS))
  (pad 1 thru_hole circle (at 0.00086 -0.00212 270) (size 1.50114 1.50114) (drill 1.00076) (layers *.Cu *.Mask F.SilkS))
  (pad 5 thru_hole circle (at 10.07 2.71 270) (size 2.99974 2.99974) (drill 2.30124) (layers *.Cu *.Mask F.SilkS))
  (pad 5 thru_hole circle (at -3.07 2.71 270) (size 2.99974 2.99974) (drill 2.30124) (layers *.Cu *.Mask F.SilkS))
  (model ${KIPRJMOD}/BrutBox_MB_Teensy.3dshapes/USB_A_V_D.wrl
    (at (xyz 0.14 0 0))
    (scale (xyz 1 1 1))
    (rotate (xyz 0 0 90))
  )
)
